{
  "subscriptionId": {
    "Value": "<<value>>",
    "Description": "Azure Subscription ID. All resources in an Azure subscription are billed together."
  },
  "subscriptionTenantId": {
    "Value": "<<value>>",
    "Description": "Id of the tenant to deploy to (If you are not sure how to get Tenant ID, please check Azure Active Directory in Azure Portal. Under Manage, click Properties. The tenant ID is shown in the Directory ID box). e.g 98f3ece2-3a5a-428b-aa4f-4c41b3f6eef0. Tenant ID is also in the \"Overview\" section\""
  },
  "resourceGroupName": {
    "Value": "<<value>>",
    "Description": "Resource Group"
  },
  "location": {
    "Value": "<<value>>",
    "Description": "The Azure region that's right for you and your customers. Not every resource is available in every region."
  },
  "baseResourceName": {
    "Value": "<<value>>",
    "Description": "The base name to use for the resources that will be provisioned."
  },
  "tenantId": {
    "Value": "<<value>>",
    "Description": "Tenant Id where the teams application will be installed. If the Azure subscription is in the same tenant, update with \"subscriptionTenantId\" parameter value."
  },
  "pairingWeekInterval": {
    "Value": "1",
    "Description": "The number of weeks between pairings."
  },
  "pairingDayOfWeek": {
    "Value": "Monday",
    "Description": "The day of the week when pairings are created."
  },
  "pairingHour": {
    "Value": "15",
    "Description": "The hour at which pairings are created."
  },
  "pairingTimeZone": {
    "Value": "GMT Standard Time",
    "Description": "The time zone for the hour at which pairings are created."
  },
  "pairingStartKey": {
    "Value": "",
    "Description": "Leave empty for auto generation. The unique key used by the function app to notify the bot to start creating pairings."
  },
  "sku": {
    "Value": "Standard",
    "Description": "The pricing tier for the hosting plan."
  },
  "defaultCulture": {
    "Value": "en-US",
    "Description": "Default culture."
  },
  "planSize": {
    "Value": "1",
    "Description": "The size of the hosting plan (small - 1, medium - 2, or large - 3). Default value: 1"
  },
  "gitRepoUrl": {
    "Value": "https://github.com/lsteixeira/icebreaker.git",
    "Description": "The URL to the GitHub repository to deploy."
  },
  "gitBranch": {
    "Value": "main",
    "Description": "The branch of the GitHub repository to deploy."
  },
  "appDisplayName": {
    "Value": "Icebreaker",
    "Description": "The app (and bot) display name."
  },
  "appDescription": {
    "Value": "Icebreaker is a cute little bot that randomly pairs team members up every week to help the team build trust and personal connections.",
    "Description": "The app (and bot) description."
  },
  "appIconUrl": {
    "Value": "https://raw.githubusercontent.com/OfficeDev/microsoft-teams-icebreaker-app/master/Manifest/color.png",
    "Description": "The link to the icon for the app. It must resolve to a PNG file."
  },
  "companyName": {
    "Value": "<<value>>",
    "Description": "The display name for the company."
  },
  "websiteUrl": {
    "Value": "<<value>>",
    "Description": "The https:// URL to the company's website. This link should take users to your company or product-specific landing page."
  },
  "privacyUrl": {
    "Value": "<<value>>",
    "Description": "The https:// URL to the company's privacy policy."
  },
  "termsOfUseUrl": {
    "Value": "<<value>>",
    "Description": "The https:// URL to the company's terms of use."
  }
}